+ ibrun ./MultTime /work/00919/tg459476/SCALE23-RMAT/input1_0 /work/00919/tg459476/SCALE23-RMAT/input2_0
Warning: Permanently added 'i151-403.ranger.tacc.utexas.edu' (RSA) to the list of known hosts.
Warning: Permanently added 'i108-112.ranger.tacc.utexas.edu' (RSA) to the list of known hosts.
