+ ibrun ./MultTime /work/00919/tg459476/SCALE22-RMAT/input1_0 /work/00919/tg459476/SCALE22-RMAT/input2_0
Warning: Permanently added 'i124-309.ranger.tacc.utexas.edu' (RSA) to the list of known hosts.
Warning: Permanently added 'i145-202.ranger.tacc.utexas.edu' (RSA) to the list of known hosts.
Warning: Permanently added 'i175-406.ranger.tacc.utexas.edu' (RSA) to the list of known hosts.
Warning: Permanently added 'i155-108.ranger.tacc.utexas.edu' (RSA) to the list of known hosts.
Warning: Permanently added 'i155-205.ranger.tacc.utexas.edu' (RSA) to the list of known hosts.
Warning: Permanently added 'i152-410.ranger.tacc.utexas.edu' (RSA) to the list of known hosts.
Warning: Permanently added 'i170-106.ranger.tacc.utexas.edu' (RSA) to the list of known hosts.
Warning: Permanently added 'i113-108.ranger.tacc.utexas.edu' (RSA) to the list of known hosts.
Warning: Permanently added 'i180-211.ranger.tacc.utexas.edu' (RSA) to the list of known hosts.
Warning: Permanently added 'i127-207.ranger.tacc.utexas.edu' (RSA) to the list of known hosts.
Warning: Permanently added 'i178-310.ranger.tacc.utexas.edu' (RSA) to the list of known hosts.
Warning: Permanently added 'i116-110.ranger.tacc.utexas.edu' (RSA) to the list of known hosts.
Warning: Permanently added 'i157-105.ranger.tacc.utexas.edu' (RSA) to the list of known hosts.
Warning: Permanently added 'i163-108.ranger.tacc.utexas.edu' (RSA) to the list of known hosts.
Warning: Permanently added 'i158-410.ranger.tacc.utexas.edu' (RSA) to the list of known hosts.
Warning: Permanently added 'i140-405.ranger.tacc.utexas.edu' (RSA) to the list of known hosts.
Warning: Permanently added 'i114-411.ranger.tacc.utexas.edu' (RSA) to the list of known hosts.
Warning: Permanently added 'i171-312.ranger.tacc.utexas.edu' (RSA) to the list of known hosts.
Warning: Permanently added 'i180-107.ranger.tacc.utexas.edu' (RSA) to the list of known hosts.
Warning: Permanently added 'i105-207.ranger.tacc.utexas.edu' (RSA) to the list of known hosts.
Warning: Permanently added 'i154-212.ranger.tacc.utexas.edu' (RSA) to the list of known hosts.
Warning: Permanently added 'i127-206.ranger.tacc.utexas.edu' (RSA) to the list of known hosts.
Warning: Permanently added 'i149-207.ranger.tacc.utexas.edu' (RSA) to the list of known hosts.
Warning: Permanently added 'i106-306.ranger.tacc.utexas.edu' (RSA) to the list of known hosts.
Warning: Permanently added 'i123-101.ranger.tacc.utexas.edu' (RSA) to the list of known hosts.
Warning: Permanently added 'i121-411.ranger.tacc.utexas.edu' (RSA) to the list of known hosts.
Warning: Permanently added 'i168-201.ranger.tacc.utexas.edu' (RSA) to the list of known hosts.
Warning: Permanently added 'i138-201.ranger.tacc.utexas.edu' (RSA) to the list of known hosts.
Warning: Permanently added 'i111-206.ranger.tacc.utexas.edu' (RSA) to the list of known hosts.
Warning: Permanently added 'i129-412.ranger.tacc.utexas.edu' (RSA) to the list of known hosts.
Warning: Permanently added 'i170-301.ranger.tacc.utexas.edu' (RSA) to the list of known hosts.
Warning: Permanently added 'i113-312.ranger.tacc.utexas.edu' (RSA) to the list of known hosts.
Warning: Permanently added 'i114-108.ranger.tacc.utexas.edu' (RSA) to the list of known hosts.
Warning: Permanently added 'i110-408.ranger.tacc.utexas.edu' (RSA) to the list of known hosts.
Warning: Permanently added 'i129-302.ranger.tacc.utexas.edu' (RSA) to the list of known hosts.
Warning: Permanently added 'i163-301.ranger.tacc.utexas.edu' (RSA) to the list of known hosts.
Warning: Permanently added 'i161-302.ranger.tacc.utexas.edu' (RSA) to the list of known hosts.
Warning: Permanently added 'i172-307.ranger.tacc.utexas.edu' (RSA) to the list of known hosts.
Warning: Permanently added 'i172-106.ranger.tacc.utexas.edu' (RSA) to the list of known hosts.
Warning: Permanently added 'i147-112.ranger.tacc.utexas.edu' (RSA) to the list of known hosts.
Warning: Permanently added 'i120-107.ranger.tacc.utexas.edu' (RSA) to the list of known hosts.
Warning: Permanently added 'i104-303.ranger.tacc.utexas.edu' (RSA) to the list of known hosts.
Warning: Permanently added 'i134-303.ranger.tacc.utexas.edu' (RSA) to the list of known hosts.
Warning: Permanently added 'i141-207.ranger.tacc.utexas.edu' (RSA) to the list of known hosts.
Warning: Permanently added 'i176-205.ranger.tacc.utexas.edu' (RSA) to the list of known hosts.
Warning: Permanently added 'i123-111.ranger.tacc.utexas.edu' (RSA) to the list of known hosts.
Warning: Permanently added 'i139-204.ranger.tacc.utexas.edu' (RSA) to the list of known hosts.
Warning: Permanently added 'i162-409.ranger.tacc.utexas.edu' (RSA) to the list of known hosts.
Warning: Permanently added 'i114-311.ranger.tacc.utexas.edu' (RSA) to the list of known hosts.
Warning: Permanently added 'i113-104.ranger.tacc.utexas.edu' (RSA) to the list of known hosts.
Warning: Permanently added 'i170-104.ranger.tacc.utexas.edu' (RSA) to the list of known hosts.
Warning: Permanently added 'i173-201.ranger.tacc.utexas.edu' (RSA) to the list of known hosts.
Warning: Permanently added 'i165-101.ranger.tacc.utexas.edu' (RSA) to the list of known hosts.
Warning: Permanently added 'i162-207.ranger.tacc.utexas.edu' (RSA) to the list of known hosts.
Warning: Permanently added 'i114-109.ranger.tacc.utexas.edu' (RSA) to the list of known hosts.
Warning: Permanently added 'i159-305.ranger.tacc.utexas.edu' (RSA) to the list of known hosts.
Warning: Permanently added 'i127-302.ranger.tacc.utexas.edu' (RSA) to the list of known hosts.
Warning: Permanently added 'i160-305.ranger.tacc.utexas.edu' (RSA) to the list of known hosts.
Warning: Permanently added 'i169-112.ranger.tacc.utexas.edu' (RSA) to the list of known hosts.
Warning: Permanently added 'i117-402.ranger.tacc.utexas.edu' (RSA) to the list of known hosts.
Warning: Permanently added 'i120-205.ranger.tacc.utexas.edu' (RSA) to the list of known hosts.
Warning: Permanently added 'i175-410.ranger.tacc.utexas.edu' (RSA) to the list of known hosts.
Warning: Permanently added 'i169-403.ranger.tacc.utexas.edu' (RSA) to the list of known hosts.
Warning: Permanently added 'i132-112.ranger.tacc.utexas.edu' (RSA) to the list of known hosts.
Warning: Permanently added 'i102-407.ranger.tacc.utexas.edu' (RSA) to the list of known hosts.
Warning: Permanently added 'i111-303.ranger.tacc.utexas.edu' (RSA) to the list of known hosts.
Warning: Permanently added 'i101-202.ranger.tacc.utexas.edu' (RSA) to the list of known hosts.
Warning: Permanently added 'i163-310.ranger.tacc.utexas.edu' (RSA) to the list of known hosts.
Warning: Permanently added 'i146-201.ranger.tacc.utexas.edu' (RSA) to the list of known hosts.
Warning: Permanently added 'i151-306.ranger.tacc.utexas.edu' (RSA) to the list of known hosts.
Warning: Permanently added 'i146-402.ranger.tacc.utexas.edu' (RSA) to the list of known hosts.
Warning: Permanently added 'i110-207.ranger.tacc.utexas.edu' (RSA) to the list of known hosts.
Warning: Permanently added 'i136-209.ranger.tacc.utexas.edu' (RSA) to the list of known hosts.
Warning: Permanently added 'i159-311.ranger.tacc.utexas.edu' (RSA) to the list of known hosts.
Warning: Permanently added 'i180-310.ranger.tacc.utexas.edu' (RSA) to the list of known hosts.
Warning: Permanently added 'i116-301.ranger.tacc.utexas.edu' (RSA) to the list of known hosts.
Warning: Permanently added 'i139-101.ranger.tacc.utexas.edu' (RSA) to the list of known hosts.
Warning: Permanently added 'i134-204.ranger.tacc.utexas.edu' (RSA) to the list of known hosts.
Warning: Permanently added 'i163-207.ranger.tacc.utexas.edu' (RSA) to the list of known hosts.
