+ ibrun ./MultTime /work/00919/tg459476/SCALE22-RMAT/input1_0 /work/00919/tg459476/SCALE22-RMAT/input2_0
Warning: Permanently added 'i172-411.ranger.tacc.utexas.edu' (RSA) to the list of known hosts.
Warning: Permanently added 'i158-101.ranger.tacc.utexas.edu' (RSA) to the list of known hosts.
Warning: Permanently added 'i148-311.ranger.tacc.utexas.edu' (RSA) to the list of known hosts.
Warning: Permanently added 'i173-408.ranger.tacc.utexas.edu' (RSA) to the list of known hosts.
Warning: Permanently added 'i121-110.ranger.tacc.utexas.edu' (RSA) to the list of known hosts.
Warning: Permanently added 'i137-412.ranger.tacc.utexas.edu' (RSA) to the list of known hosts.
Warning: Permanently added 'i176-312.ranger.tacc.utexas.edu' (RSA) to the list of known hosts.
Warning: Permanently added 'i140-207.ranger.tacc.utexas.edu' (RSA) to the list of known hosts.
Warning: Permanently added 'i105-309.ranger.tacc.utexas.edu' (RSA) to the list of known hosts.
Warning: Permanently added 'i137-101.ranger.tacc.utexas.edu' (RSA) to the list of known hosts.
Warning: Permanently added 'i143-106.ranger.tacc.utexas.edu' (RSA) to the list of known hosts.
Warning: Permanently added 'i151-408.ranger.tacc.utexas.edu' (RSA) to the list of known hosts.
Warning: Permanently added 'i112-403.ranger.tacc.utexas.edu' (RSA) to the list of known hosts.
Warning: Permanently added 'i126-406.ranger.tacc.utexas.edu' (RSA) to the list of known hosts.
Warning: Permanently added 'i124-310.ranger.tacc.utexas.edu' (RSA) to the list of known hosts.
Warning: Permanently added 'i120-404.ranger.tacc.utexas.edu' (RSA) to the list of known hosts.
Warning: Permanently added 'i173-110.ranger.tacc.utexas.edu' (RSA) to the list of known hosts.
Warning: Permanently added 'i108-209.ranger.tacc.utexas.edu' (RSA) to the list of known hosts.
Warning: Permanently added 'i157-402.ranger.tacc.utexas.edu' (RSA) to the list of known hosts.
Warning: Permanently added 'i149-103.ranger.tacc.utexas.edu' (RSA) to the list of known hosts.
Warning: Permanently added 'i101-303.ranger.tacc.utexas.edu' (RSA) to the list of known hosts.
Warning: Permanently added 'i180-112.ranger.tacc.utexas.edu' (RSA) to the list of known hosts.
Warning: Permanently added 'i125-210.ranger.tacc.utexas.edu' (RSA) to the list of known hosts.
Warning: Permanently added 'i140-111.ranger.tacc.utexas.edu' (RSA) to the list of known hosts.
Warning: Permanently added 'i176-405.ranger.tacc.utexas.edu' (RSA) to the list of known hosts.
Warning: Permanently added 'i143-412.ranger.tacc.utexas.edu' (RSA) to the list of known hosts.
Warning: Permanently added 'i119-110.ranger.tacc.utexas.edu' (RSA) to the list of known hosts.
Warning: Permanently added 'i119-309.ranger.tacc.utexas.edu' (RSA) to the list of known hosts.
Warning: Permanently added 'i106-403.ranger.tacc.utexas.edu' (RSA) to the list of known hosts.
Warning: Permanently added 'i168-410.ranger.tacc.utexas.edu' (RSA) to the list of known hosts.
Warning: Permanently added 'i145-107.ranger.tacc.utexas.edu' (RSA) to the list of known hosts.
Warning: Permanently added 'i102-105.ranger.tacc.utexas.edu' (RSA) to the list of known hosts.
Warning: Permanently added 'i166-405.ranger.tacc.utexas.edu' (RSA) to the list of known hosts.
Warning: Permanently added 'i132-407.ranger.tacc.utexas.edu' (RSA) to the list of known hosts.
Warning: Permanently added 'i178-304.ranger.tacc.utexas.edu' (RSA) to the list of known hosts.
Warning: Permanently added 'i114-302.ranger.tacc.utexas.edu' (RSA) to the list of known hosts.
Warning: Permanently added 'i163-404.ranger.tacc.utexas.edu' (RSA) to the list of known hosts.
Warning: Permanently added 'i161-310.ranger.tacc.utexas.edu' (RSA) to the list of known hosts.
Warning: Permanently added 'i102-112.ranger.tacc.utexas.edu' (RSA) to the list of known hosts.
Warning: Permanently added 'i164-212.ranger.tacc.utexas.edu' (RSA) to the list of known hosts.
Warning: Permanently added 'i120-110.ranger.tacc.utexas.edu' (RSA) to the list of known hosts.
Warning: Permanently added 'i106-103.ranger.tacc.utexas.edu' (RSA) to the list of known hosts.
Warning: Permanently added 'i154-404.ranger.tacc.utexas.edu' (RSA) to the list of known hosts.
Warning: Permanently added 'i113-311.ranger.tacc.utexas.edu' (RSA) to the list of known hosts.
Warning: Permanently added 'i112-310.ranger.tacc.utexas.edu' (RSA) to the list of known hosts.
Warning: Permanently added 'i155-204.ranger.tacc.utexas.edu' (RSA) to the list of known hosts.
Warning: Permanently added 'i105-303.ranger.tacc.utexas.edu' (RSA) to the list of known hosts.
Warning: Permanently added 'i142-112.ranger.tacc.utexas.edu' (RSA) to the list of known hosts.
Warning: Permanently added 'i127-301.ranger.tacc.utexas.edu' (RSA) to the list of known hosts.
Warning: Permanently added 'i172-210.ranger.tacc.utexas.edu' (RSA) to the list of known hosts.
Warning: Permanently added 'i179-103.ranger.tacc.utexas.edu' (RSA) to the list of known hosts.
Warning: Permanently added 'i101-210.ranger.tacc.utexas.edu' (RSA) to the list of known hosts.
Warning: Permanently added 'i146-310.ranger.tacc.utexas.edu' (RSA) to the list of known hosts.
