+ ibrun ./MultTime /work/00919/tg459476/SCALE22-RMAT/input1_0 /work/00919/tg459476/SCALE22-RMAT/input2_0
Warning: Permanently added 'i106-308.ranger.tacc.utexas.edu' (RSA) to the list of known hosts.
Warning: Permanently added 'i114-401.ranger.tacc.utexas.edu' (RSA) to the list of known hosts.
Warning: Permanently added 'i181-107.ranger.tacc.utexas.edu' (RSA) to the list of known hosts.
Warning: Permanently added 'i104-102.ranger.tacc.utexas.edu' (RSA) to the list of known hosts.
Warning: Permanently added 'i165-106.ranger.tacc.utexas.edu' (RSA) to the list of known hosts.
Warning: Permanently added 'i119-301.ranger.tacc.utexas.edu' (RSA) to the list of known hosts.
Warning: Permanently added 'i136-311.ranger.tacc.utexas.edu' (RSA) to the list of known hosts.
Warning: Permanently added 'i173-311.ranger.tacc.utexas.edu' (RSA) to the list of known hosts.
Warning: Permanently added 'i133-405.ranger.tacc.utexas.edu' (RSA) to the list of known hosts.
Warning: Permanently added 'i103-106.ranger.tacc.utexas.edu' (RSA) to the list of known hosts.
Warning: Permanently added 'i114-111.ranger.tacc.utexas.edu' (RSA) to the list of known hosts.
Warning: Permanently added 'i181-303.ranger.tacc.utexas.edu' (RSA) to the list of known hosts.
Warning: Permanently added 'i150-410.ranger.tacc.utexas.edu' (RSA) to the list of known hosts.
Warning: Permanently added 'i157-301.ranger.tacc.utexas.edu' (RSA) to the list of known hosts.
Warning: Permanently added 'i155-202.ranger.tacc.utexas.edu' (RSA) to the list of known hosts.
Warning: Permanently added 'i165-103.ranger.tacc.utexas.edu' (RSA) to the list of known hosts.
Warning: Permanently added 'i167-310.ranger.tacc.utexas.edu' (RSA) to the list of known hosts.
Warning: Permanently added 'i137-203.ranger.tacc.utexas.edu' (RSA) to the list of known hosts.
Warning: Permanently added 'i116-303.ranger.tacc.utexas.edu' (RSA) to the list of known hosts.
Warning: Permanently added 'i178-303.ranger.tacc.utexas.edu' (RSA) to the list of known hosts.
Warning: Permanently added 'i177-101.ranger.tacc.utexas.edu' (RSA) to the list of known hosts.
Warning: Permanently added 'i140-202.ranger.tacc.utexas.edu' (RSA) to the list of known hosts.
Warning: Permanently added 'i155-112.ranger.tacc.utexas.edu' (RSA) to the list of known hosts.
Warning: Permanently added 'i164-412.ranger.tacc.utexas.edu' (RSA) to the list of known hosts.
Warning: Permanently added 'i175-102.ranger.tacc.utexas.edu' (RSA) to the list of known hosts.
Warning: Permanently added 'i159-307.ranger.tacc.utexas.edu' (RSA) to the list of known hosts.
Warning: Permanently added 'i104-111.ranger.tacc.utexas.edu' (RSA) to the list of known hosts.
Warning: Permanently added 'i121-107.ranger.tacc.utexas.edu' (RSA) to the list of known hosts.
Warning: Permanently added 'i159-102.ranger.tacc.utexas.edu' (RSA) to the list of known hosts.
Warning: Permanently added 'i111-412.ranger.tacc.utexas.edu' (RSA) to the list of known hosts.
Warning: Permanently added 'i152-105.ranger.tacc.utexas.edu' (RSA) to the list of known hosts.
Warning: Permanently added 'i133-404.ranger.tacc.utexas.edu' (RSA) to the list of known hosts.
